^C:\USERS\WILLC\SOURCE\REPOS\ELEVATOR\ELEVATOR\ELEVATORLIB\DEBUG\ELEVATORCONTROLLER.OBJ|C:\USERS\WILLC\SOURCE\REPOS\ELEVATOR\ELEVATOR\ELEVATORLIB\DEBUG\ELEVATORLIB.OBJ|C:\USERS\WILLC\SOURCE\REPOS\ELEVATOR\ELEVATOR\ELEVATORLIB\DEBUG\ELEVATORLIB.RES|C:\USERS\WILLC\SOURCE\REPOS\ELEVATOR\ELEVATOR\ELEVATORLIB\DEBUG\ELEVATORWND.OBJ|C:\USERS\WILLC\SOURCE\REPOS\ELEVATOR\ELEVATOR\ELEVATORLIB\DEBUG\STDAFX.OBJ|C:\USERS\WILLC\SOURCE\REPOS\ELEVATOR\ELEVATOR\ELEVATORLIB\DEBUG\TIMEMANAGEMENT.OBJ
C:\USERS\WILLC\SOURCE\REPOS\ELEVATOR\ELEVATOR\ELEVATORLIB\DEBUG\ELEVATORLIB.RES
C:\WINDOWS\GLOBALIZATION\SORTING\SORTDEFAULT.NLS
C:\WINDOWS\SYSTEM32\TZRES.DLL
C:\USERS\WILLC\SOURCE\REPOS\ELEVATOR\ELEVATOR\ELEVATORLIB\DEBUG\ELEVATORWND.OBJ
C:\USERS\WILLC\SOURCE\REPOS\ELEVATOR\ELEVATOR\ELEVATORLIB\DEBUG\ELEVATORCONTROLLER.OBJ
C:\USERS\WILLC\SOURCE\REPOS\ELEVATOR\ELEVATOR\ELEVATORLIB\DEBUG\ELEVATORLIB.OBJ
C:\USERS\WILLC\SOURCE\REPOS\ELEVATOR\ELEVATOR\ELEVATORLIB\DEBUG\STDAFX.OBJ
C:\USERS\WILLC\SOURCE\REPOS\ELEVATOR\ELEVATOR\ELEVATORLIB\DEBUG\TIMEMANAGEMENT.OBJ
