^C:\USERS\WILLC\SOURCE\REPOS\ELEVATOR\ELEVATOR\TESTING\STDAFX.CPP
C:\USERS\WILLC\SOURCE\REPOS\ELEVATOR\ELEVATOR\TESTING\DEBUG\TESTING.PCH
C:\USERS\WILLC\SOURCE\REPOS\ELEVATOR\ELEVATOR\TESTING\DEBUG\VC141.PDB
C:\USERS\WILLC\SOURCE\REPOS\ELEVATOR\ELEVATOR\TESTING\DEBUG\VC141.IDB
C:\USERS\WILLC\SOURCE\REPOS\ELEVATOR\ELEVATOR\TESTING\DEBUG\STDAFX.OBJ
^C:\USERS\WILLC\SOURCE\REPOS\ELEVATOR\ELEVATOR\TESTING\CELEVATORCONTROLLERTEST.CPP|C:\USERS\WILLC\SOURCE\REPOS\ELEVATOR\ELEVATOR\TESTING\CELEVATORWNDTEST.CPP|C:\USERS\WILLC\SOURCE\REPOS\ELEVATOR\ELEVATOR\TESTING\INITIALIZE.CPP
C:\USERS\WILLC\SOURCE\REPOS\ELEVATOR\ELEVATOR\TESTING\DEBUG\VC141.PDB
C:\USERS\WILLC\SOURCE\REPOS\ELEVATOR\ELEVATOR\TESTING\DEBUG\VC141.IDB
C:\USERS\WILLC\SOURCE\REPOS\ELEVATOR\ELEVATOR\TESTING\DEBUG\INITIALIZE.OBJ
C:\USERS\WILLC\SOURCE\REPOS\ELEVATOR\ELEVATOR\TESTING\DEBUG\CELEVATORWNDTEST.OBJ
C:\USERS\WILLC\SOURCE\REPOS\ELEVATOR\ELEVATOR\TESTING\DEBUG\CELEVATORCONTROLLERTEST.OBJ
^C:\USERS\WILLC\SOURCE\REPOS\ELEVATOR\ELEVATOR\TESTING\CELEVATORCONTROLLERTEST.CPP
C:\USERS\WILLC\SOURCE\REPOS\ELEVATOR\ELEVATOR\TESTING\DEBUG\VC141.PDB
^C:\USERS\WILLC\SOURCE\REPOS\ELEVATOR\ELEVATOR\TESTING\CELEVATORWNDTEST.CPP
C:\USERS\WILLC\SOURCE\REPOS\ELEVATOR\ELEVATOR\TESTING\DEBUG\VC141.PDB
^C:\USERS\WILLC\SOURCE\REPOS\ELEVATOR\ELEVATOR\TESTING\INITIALIZE.CPP
C:\USERS\WILLC\SOURCE\REPOS\ELEVATOR\ELEVATOR\TESTING\DEBUG\VC141.PDB
^C:\USERS\WILLC\SOURCE\REPOS\ELEVATOR\ELEVATOR\TESTING\CCONTROLLERTEST.CPP
C:\USERS\WILLC\SOURCE\REPOS\ELEVATOR\ELEVATOR\TESTING\DEBUG\VC141.PDB
C:\USERS\WILLC\SOURCE\REPOS\ELEVATOR\ELEVATOR\TESTING\DEBUG\VC141.IDB
C:\USERS\WILLC\SOURCE\REPOS\ELEVATOR\ELEVATOR\TESTING\DEBUG\CCONTROLLERTEST.OBJ
